…
``` r
summary(donor$firstgift)
```

    ##         Min.      1st Qu.       Median         Mean      3rd Qu. 
    ## "1991-10-31" "1998-04-06" "2001-07-09" "2013-02-26" "2004-11-19" 
    ##         Max. 
    ## "2200-01-01"

``` r
donor2200 <- donor %>% filter(firstgift > "2100-01-01")
donor2200
```

    ## # A tibble: 71,924 x 2
    ##         id  firstgift
    ##      <chr>     <date>
    ##  1 2170046 2200-01-01
    ##  2 2170055 2200-01-01
    ##  3 2170064 2200-01-01
    ##  4 2170073 2200-01-01
    ##  5 2170082 2200-01-01
    ##  6 2170091 2200-01-01
    ##  7 2170108 2200-01-01
    ##  8 2170117 2200-01-01
    ##  9 2170126 2200-01-01
    ## 10 2170135 2200-01-01
    ## # ... with 71,914 more rows

It looks like there is a problem with the Donor data set, in that there are 71,924 donors who are designated to have given their first gift in the year 2200. The question is, how should we handle this 'missing' data? Since all of these are on the exact same date, on January 1 of 2200, it is possible this is a dummy date for when the first gift date is either unknown or perhaps occurred prior to the transaction history in the database, or maybe they have not yet given a donation. The data description gives zero guidance. Let's pull their transaction history and take a look.

``` r
donor2200 <- left_join(donor2200, trans_train)
```

    ## Joining, by = "id"

``` r
donor2200
```

    ## # A tibble: 72,771 x 7
    ##         id  firstgift   amt   giftdate     source center   zip
    ##      <chr>     <date> <dbl>     <date>      <chr>  <chr> <chr>
    ##  1 2170046 2200-01-01     0 1994-08-14 92NWLAWUUU    100 01420
    ##  2 2170055 2200-01-01     0 1994-08-14 92NWLAWUUU    100 74003
    ##  3 2170064 2200-01-01     0 1994-08-14 92NWLAWUUU    100 02351
    ##  4 2170073 2200-01-01     0 1994-08-14 92NWLAWUUU    100 23113
    ##  5 2170082 2200-01-01     0 1994-08-14 92NWLAWUUU    100 02166
    ##  6 2170091 2200-01-01     0 1994-08-14 92NWLAWUUU    100 02148
    ##  7 2170108 2200-01-01     0 1994-08-14 92NWLAWUUU    100 48060
    ##  8 2170117 2200-01-01     0 1994-08-14 92NWLAWUUU    100 74802
    ##  9 2170126 2200-01-01     0 1994-08-14 92NWLAWUUU    100 02375
    ## 10 2170135 2200-01-01     0 1994-08-14 92NWLAWUUU    100 80903
    ## # ... with 72,761 more rows
…
